[Friar]
Base Class=Acolyte
Primary Attribute=Piety
Secondary Attribute=Constitution
Tertiary Attribute=Strength
Multiplier=1.5
Description=A religous zealot who joins the Defenders of Albion and fights alongside his arms-bearing Realmmates. Friars get healing prayers as well as quarterstaff combat styles.
Specialisation 1=Quarterstaves
Specialisation 1 Level=5
Specialisation 1 Cap=1
Specialisation 2=Parry
Specialisation 2 Level=5
Specialisation 2 Cap=1
Specialisation 3=Friar Enhance Spec
Specialisation 3 Level=5
Specialisation 3 Cap=1
Specialisation 4=Friar Rejuvenation Spec
Specialisation 4 Level=5
Specialisation 4 Cap=1
Line 1=Enhance
Line 1 Level=1
Line 2=Rejuvenation
Line 2 Level=1
Armor 1=Small Shields
Armor 1 Level=1
Armor 2=Leather
Armor 2 Level=1
Armor 3=Cloth
Armor 3 Level=1
[Quarterstaves]
Description=The ability to use quarterstaves of all kinds. Training in the Quarterstaff Skill results in a decreased damage variance and gives you access to the combat styles. Only Friars get this skill.
Style 1=Spinning Staff
Style 1 Level=2
Style 1 Description=Medium fatigue cost, medium bonus damage, small bonus to defense
Style 2=Figure Eight
Style 2 Level=4
Style 2 Description=Low Fatigue cost, use after successful evade, high bonus damage, medium bonus to hit, small bonus to defense
Style 3=Friar's Ally
Style 3 Level=6
Style 3 Description=Medium fatigue cost, Use after Figure Eight, medium bonus damage, short duration stun, medium bonus to hit
Style 4=Defender's Fury
Style 4 Level=8
Style 4 Description=Medium fatigue cost, medium bonus damage, medium duration attack speed reduction, small bonus to hit
Style 5=Quick Strike
Style 5 Level=10
Style 5 Description=Medium fatigue cost, use after Defender's Fury, medium bonus damage
Style 6=Friar's Redress
Style 6 Level=12
Style 6 Description=Medium fatigue cost, no bonus damage, attempt to taunt target off you, very high bonus to defense for next round
Style 7=Double Strike
Style 7 Level=15
Style 7 Description=Low fatigue cost, use after Figure Eight, medium bonus damage, short duration bleed, medium bonus to hit, small bonus to defense
Style 8=Friar's Friend
Style 8 Level=18
Style 8 Description=High fatigue cost, use from side of target, high bonus damage, medium duration stun, medium bonus to hit
Style 9=Counter Evade
Style 9 Level=21
Style 9 Description=Low fatigue cost, use after target is evaded, high bonus damage, medium duration movement reduction, small bonus to hit, medium bonus to defense
Style 10=Banish
Style 10 Level=25
Style 10 Description=Low fatigue cost, use after successful Friar's Friend, very high bonus damage, medium bonus to hit, medium bonus to defense
Style 11=Friar's Boon
Style 11 Level=29
Style 11 Description=Medium fatigue cost, medium bonus damage, medium bonus to defense
Style 12=Holy Staff
Style 12 Level=34
Style 12 Description=High fatigue cost, use any time, medium bonus damage, small bonus to hit
Style 13=Friar's Fury
Style 13 Level=39
Style 13 Description=Low fatigue cost, Use after Counter Evade, medium bonus damage, medium duration bleed, medium bonus to hit, small bonus to defense
Style 14=Stunning Wrath
Style 14 Level=44
Style 14 Description=Medium fatigue cost, use after Banish, Long duration stun, high bonus to hit, medium bonus to defense
Style 15=Excommunicate
Style 15 Level=50
Style 15 Description=Medium fatigue cost, use after parrying enemy, high bonus damage, medium bonus to hit, small bonus to defense
[Parry]
Description=The ability block a blow from your opponent using your weapon. This is an invaluable ability for those not using shields.
[Friar Enhance Spec]
Description=When a Friar specializes in Enhance, this skill is opened to him. It deals with self shield buffs, self endurance regen spells, and self-haste spells.
Style 1=Shield of Faith
Style 1 Level=1
Style 1 Description=+14 AF, Self-Only
Style 2=Saint's Vigor
Style 2 Level=2
Style 2 Description=+2 Fatigue Recovery per cycle
Style 3=Shield of Piety
Style 3 Level=3
Style 3 Description=+16 AF, Self-Only
Style 4=Speed of the Angel
Style 4 Level=5
Style 4 Description=+17% Attack Speed
Style 5=Shield of Devotion
Style 5 Level=7
Style 5 Description=+20 AF, Self-Only
Style 6=Haste of the Angel
Style 6 Level=10
Style 6 Description=+20% Attack Speed
Style 7=Shield of Grace
Style 7 Level=11
Style 7 Description=+24 AF, Self-Only
Style 8=Saint's Energy
Style 8 Level=12
Style 8 Description=+3 Fatigue Recovery per cycle
Style 9=Alacrity of the Angel
Style 9 Level=15
Style 9 Description=+22% Attack Speed
Style 10=Shield of Justice
Style 10 Level=16
Style 10 Description=+29 AF, Self-Only
Style 11=Resilience of the Wanderer
Style 11 Level=21
Style 11 Description=+X% Heat Resistaince
Style 12=Saint's Stamina
Style 12 Level=22
Style 12 Description=+4 Fatigue Recovery per cycle
Style 13=Speed of the Archangel
Style 13 Level=23
Style 13 Description=+26% Attack Speed
Style 14=Shield of Zeal
Style 14 Level=24
Style 14 Description=+37 AF, Self-Only
Style 15=Hearth's Blessing
Style 15 Level=25
Style 15 Description=+X% Cold Resistaince
Style 16=Blessing of Resilience
Style 16 Level=26
Style 16 Description=Adds 5% melee damage absoprtion
Style 17=Attunement to Creation
Style 17 Level=27
Style 17 Description=+X% Matter Resistaince
Style 18=Haste of the Archangel
Style 18 Level=30
Style 18 Description=+30% Attack Speed
Style 19=Fortitude of the Wanderer
Style 19 Level=31
Style 19 Description=+X% Heat Resistaince
Style 20=Saint's Persistence
Style 20 Level=32
Style 20 Description=+5 Fatigue Recovery per cycle
Style 21=Shield of Holiness
Style 21 Level=33
Style 21 Description=+46 AF, Self-Only
Style 22=Blessing of Absoprtion
Style 22 Level=34
Style 22 Description=Adds 10% melee damage absoprtion
Style 23=Heath's Benison
Style 23 Level=35
Style 23 Description=+X% Cold Resistaince
Style 24=Blessing of Creation
Style 24 Level=37
Style 24 Description=+X% Matter Resistaince
Style 25=Alacrity of the Archangel
Style 25 Level=38
Style 25 Description=+34% Attack Speed
Style 26=Saint's Tenacity
Style 26 Level=42
Style 26 Description=+6 Fatigue Recovery per cycle
Style 27=Blessing of Dissipation
Style 27 Level=44
Style 27 Description=Adds 15% melee damage absoprtion
Style 28=Shield of the Sanctified
Style 28 Level=45
Style 28 Description=+58 AF, Self-Only
Style 29=Piety of the Wanderer
Style 29 Level=46
Style 29 Description=+X% Heat Resistaince
Style 30=Alacrity of the Heavenly Hostscombat
Style 30 Level=47
Style 30 Description=+38% Attack Speed
Style 31=Hearth's Gift
Style 31 Level=48
Style 31 Description=+X% Cold Resistaince
Style 32=Oneness with Creation
Style 32 Level=49
Style 32 Description=+X% Matter Resistaince
[Friar Rejuvenation Spec]
Description=When a Friar specializes in Rejuvenation, this skill is opened to him. It deals with large healing spells.
Style 1=Major Restoration
Style 1 Level=5
Style 1 Description=Heal 55 HP
Style 2=Cure Poison
Style 2 Level=6
Style 2 Description=Cures Poisons on target
Style 3=Cure Disease
Style 3 Level=7
Style 3 Description=Cures Diseases on target
Style 4=Major Recuperation
Style 4 Level=8
Style 4 Description=Heal 82 HP
Style 5=Major Renewal
Style 5 Level=11
Style 5 Description=Heal 109 HP
Style 6=Major Revival
Style 6 Level=14
Style 6 Description=Heal 136 HP
Style 7=Raise Fallen
Style 7 Level=15
Style 7 Description=Resurrect with 30% HP, 10% Power
Style 8=Major Resuscitation
Style 8 Level=18
Style 8 Description=Heal 172 HP
Style 9=Major Reviction
Style 9 Level=25
Style 9 Description=Heal 235 HP
Style 10=Major Refection
Style 10 Level=33
Style 10 Description=Heal 307 HP
Style 11=Major Refocillation
Style 11 Level=43
Style 11 Description=Heal 396 HP
[Enhance]
Description=Albion's buffing spell skill available to Clerics and Friars. This spell skill deals with stat buffs and shield spells.
Style 1=Aura of Shielding
Style 1 Level=2
Style 1 Description=+12 AF
Style 2=Blessed Strength
Style 2 Level=3
Style 2 Description=+3 Strength
Style 3=Greater Aura of Shielding
Style 3 Level=5
Style 3 Description=+15 AF
Style 4=Blessing of Health
Style 4 Level=6
Style 4 Description=+6 Constitution
Style 5=Blessed Potency
Style 5 Level=7
Style 5 Description=+7 Strength
Style 6=Blessed Dexterity
Style 6 Level=8
Style 6 Description=+8 Dexterity
Style 7=Aura of Defense
Style 7 Level=10
Style 7 Description=+20 AF
Style 8=Benison of Health
Style 8 Level=11
Style 8 Description=+11 Constitution
Style 9=Blessed Agility
Style 9 Level=13
Style 9 Description=+13 Dexterity
Style 10=Blessed Power
Style 10 Level=14
Style 10 Description=+14 Strength
Style 11=Benediction of Health
Style 11 Level=15
Style 11 Description=+15 Constitution
Style 12=Greater Aura of Defense
Style 12 Level=16
Style 12 Description=+26 AF
Style 13=Blessed Coordination
Style 13 Level=19
Style 13 Description=+19 Dexterity
Style 14=Holy Strength
Style 14 Level=20
Style 14 Description=+20 Strength
Style 15=Aura of Guarding
Style 15 Level=22
Style 15 Description=+32 AF
Style 16=Blessing of Fortitude
Style 16 Level=24
Style 16 Description=+24 Constitution
Style 17=Holy Dexterity
Style 17 Level=28
Style 17 Description=+28 Dexterity
Style 18=Holy Potency
Style 18 Level=30
Style 18 Description=+30 Strength
Style 19=Greater Aura of Guarding
Style 19 Level=31
Style 19 Description=+41 AF
Style 20=Benison of Fortitude
Style 20 Level=33
Style 20 Description=+33 Constitution
Style 21=Holy Agility
Style 21 Level=38
Style 21 Description=+38 Dexterity
Style 22=Holy Power
Style 22 Level=41
Style 22 Description=+41 Strength
Style 23=Aura of Deflection
Style 23 Level=42
Style 23 Description=+52 AF
Style 24=Benediction of Fortitude
Style 24 Level=43
Style 24 Description=+43 Constitution
Style 25=Holy Coordination
Style 25 Level=48
Style 25 Description=+48 Dexterity
Style 26=Holy Might
Style 26 Level=50
Style 26 Description=+50 Strength
[Rejuvenation]
Description=Albion's healing and resurrection spell skill available to Clerics and Friars.
Style 1=Minor Rejuvenation
Style 1 Level=1
Style 1 Description=Heal 6 HP
Style 2=Minor Regeneracy
Style 2 Level=3
Style 2 Description=Heal 11 HP
Style 3=Regeneracy
Style 3 Level=4
Style 3 Description=Heal 26 HP
Style 4=Minor Relief
Style 4 Level=5
Style 4 Description=Heal 16 HP
Style 5=Relief
Style 5 Level=6
Style 5 Description=Heal 36 HP
Style 6=Minor Restoration
Style 6 Level=8
Style 6 Description=Heal 23 HP
Style 7=Restoration
Style 7 Level=9
Style 7 Description=Heal 50 HP
Style 8=Revive
Style 8 Level=10
Style 8 Description=Resurrect with 10% HP, 0% Power
Style 9=Minor Recuperation
Style 9 Level=11
Style 9 Description=Heal 31 HP
Style 10=Recuperation
Style 10 Level=12
Style 10 Description=Heal 65 HP
Style 11=Minor Renewal
Style 11 Level=14
Style 11 Description=Heal 38 HP
Style 12=Angelic Commendation
Style 12 Level=15
Style 12 Description=Group Heal 33 HP
Style 13=Renewal
Style 13 Level=16
Style 13 Description=Heal 85 HP
Style 14=Minor Revival
Style 14 Level=18
Style 14 Description=Heal 48 HP
Style 15=Revival
Style 15 Level=21
Style 15 Description=Heal 109 HP
Style 16=Minor Resuscitation
Style 16 Level=23
Style 16 Description=Heal 60 HP
Style 17=Angelic Benediction
Style 17 Level=25
Style 17 Description=Group Heal 53 HP
Style 18=Resuscitation
Style 18 Level=27
Style 18 Description=Heal 138 HP
Style 19=Minor Reviction
Style 19 Level=29
Style 19 Description=Heal 75 HP
Style 20=Reviction
Style 20 Level=31
Style 20 Description=Heal 158 HP
Style 21=Angelic Blessing
Style 21 Level=35
Style 21 Description=Group Heal 73 HP
Style 22=Refection
Style 22 Level=36
Style 22 Description=Heal 183 HP
Style 23=Minor Refection
Style 23 Level=37
Style 23 Description=Heal 95 HP
Style 24=Angelic Approbation
Style 24 Level=45
Style 24 Description=Group Heal 93 HP
Style 25=Refocillation
Style 25 Level=46
Style 25 Description=Heal 231 HP
Style 26=Minor Refocillation
Style 26 Level=47
Style 26 Description=Heal 119 HP
[Armor]
Small Shields Description=The ability to wield Small Shields.
Leather Description=The ability to wear Leather armor. Even though the leather types differ, every realm has this skill.
Cloth Description=The ability to wear Cloth armor. Even though robes and cloth types differ, every realm has this skill. Every Class gets this skill.
